<?xml version="1.0" encoding="utf-8"?>
<!-- Generator: Adobe Illustrator 23.0.5, SVG Export Plug-In . SVG Version: 6.00 Build 0)  -->
<svg version="1.1" id="administration_ic" xmlns="http://www.w3.org/2000/svg" xmlns:xlink="http://www.w3.org/1999/xlink" x="0px"
	 y="0px" viewBox="0 0 49.3 44.4" style="enable-background:new 0 0 49.3 44.4;" xml:space="preserve">
<g id="Group_7" transform="translate(0 0)">
	<g id="Group_6">
		<path id="Path_16" d="M33.6,29c-0.8-1.2-2-2.1-3.4-2.5c1.9-3.1,1-7.1-2.1-9.1s-7.1-1-9.1,2.1c-1.4,2.1-1.4,4.9,0,7
			c-1.4,0.4-2.6,1.3-3.4,2.5l-3.1,5.3c-0.4,0.7-0.2,1.7,0.5,2.2l10.6,7.6c0.6,0.4,1.3,0.4,1.9,0l10.6-7.6c0.7-0.5,0.9-1.4,0.5-2.2
			L33.6,29z M24.7,19.7c1.8,0,3.3,1.5,3.3,3.3s-1.5,3.3-3.3,3.3s-3.3-1.5-3.3-3.3C21.4,21.2,22.9,19.7,24.7,19.7z M24.7,40.7l-8.4-6
			l2.3-4.1c0.4-0.6,1.1-1,1.8-1.1H29c0.7,0.1,1.4,0.5,1.8,1.1l2.3,4.1L24.7,40.7z"/>
		<path id="Path_17" d="M37.8,9.9c-0.3,0-0.6,0-0.8,0C34.3,2.2,25.8-1.9,18.1,0.8c-5.4,1.9-9.2,6.7-9.8,12.4
			c-5.4,0.9-9,5.9-8.2,11.3c0.8,4.8,4.9,8.3,9.7,8.3h1.6v-3.3H9.9c-3.6,0-6.6-2.9-6.6-6.6c0-3.6,2.9-6.6,6.6-6.6
			c0.9,0,1.6-0.7,1.6-1.6l0,0c0-6.4,5.2-11.5,11.5-11.5c4.7,0,9,2.9,10.7,7.3c-1.5,0.6-2.9,1.5-4,2.6l2.3,2.3
			c1.5-1.5,3.6-2.4,5.8-2.4c4.5,0,8.2,3.7,8.2,8.2s-3.7,8.2-8.2,8.2v3.3c6.4,0,11.5-5.2,11.5-11.5S44.2,9.9,37.8,9.9L37.8,9.9z"/>
	</g>
</g>
</svg>
