<?xml version="1.0" encoding="utf-8"?>
<!-- Generator: Adobe Illustrator 25.2.0, SVG Export Plug-In . SVG Version: 6.00 Build 0)  -->
<svg version="1.1" id="Layer_1" xmlns="http://www.w3.org/2000/svg" xmlns:xlink="http://www.w3.org/1999/xlink" x="0px" y="0px"
	 viewBox="0 0 150 150" style="enable-background:new 0 0 150 150;" xml:space="preserve">
<g>
	<path d="M139.8,67.3c-1.1-3.4-3.5-5.5-6.8-6c-1-0.1-1.8-0.1-2.4-0.1h-4.5l-0.4-1c-0.9-2.4-1.9-4.8-3.2-7.4c0.1-0.1,0.3-0.3,0.5-0.4
		c0.4-0.5,0.9-0.9,1.3-1.4c0.5-0.5,1-1,1.5-1.5l0.5-0.6L127,48c2.2-2.8,2.4-6.3,0.7-9.3c-0.4-0.6-0.7-1.2-1.4-2
		c-1.6-2-3.4-3.8-5.2-5.6l-2.8-2.8c-0.9-0.8-1.8-1.6-3-2.5c-2-1.5-3.9-2.2-5.8-2.2c-2.2,0-4.4,1-6.4,3l-3.3,3.2
		c-3.1-1.4-5.8-2.5-8.3-3.4V22c0-5.5-2.9-8.7-8.5-9.5c-2.1-0.2-4.3-0.2-6.2-0.2h-1.8c-1.4,0-2.8,0-4.5,0.1c-1.9,0.2-3.2,0.5-5.3,1.2
		c-2.9,1.2-4.8,3.5-5.4,6.7c-0.1,1-0.1,1.8-0.1,2.5V27c-0.3,0.1-0.5,0.2-0.8,0.2c-2.7,0.9-5.2,2.1-7.5,3.1l-3.2-3.2
		c-0.4-0.4-0.8-0.8-1.4-1.3c-1.6-1.3-3.4-1.9-5.2-1.9c-1.5,0-2.9,0.4-4.3,1.2c-1.1,0.6-1.9,1.2-2.6,1.8c-1.7,1.4-3.2,2.9-4.7,4.4
		l-2.8,2.8l-0.6,0.6c-0.9,0.9-1.9,2.1-2.7,3.4c-2.4,3.9-2.1,7.5,1,11l3.8,3.8c-1.3,2.5-2.4,5.3-3.4,8.3h-4.6c-5.2,0-8.5,2.8-9.3,7.9
		c-0.2,1.3-0.4,2.6-0.4,4v8.4c0,2.3,0.2,4.1,0.7,5.7c1.4,5,5.4,6,8.2,6.1c0,0,4.3,0.1,5.3,0.1l0.2,0.7c0.9,2.7,2.1,5.2,3.1,7.5
		l-3.2,3.2c-0.6,0.6-1.1,1.2-1.6,1.9c-1.8,2.4-2.1,5.4-0.7,8.2c0.4,1,0.9,1.8,1.6,2.6c2.2,2.8,4.8,5.3,7.1,7.4l0.8,0.8
		c1.1,1.1,2.6,2.5,4.6,3.7c1.5,0.9,3,1.3,4.5,1.3c1.9,0,3.7-0.7,5.5-2.2c1.3-1.2,2.6-2.5,4.2-4.1c0.8,0.4,1.6,0.8,2.3,1.1
		c1.8,0.8,3.8,1.6,6,2.3v3.7c0,0.8,0,1.7,0.1,2.6c0.4,3.6,2.7,6.2,6.3,7.2c1,0.2,2,0.3,3.5,0.5c1.7,0.1,3.5,0.1,5.3,0.1H80
		c2.1,0,4-0.2,5.8-0.7c3.3-0.9,5.5-3.4,6.1-6.9c0.1-1,0.1-1.7,0.1-2.4v-4.2c2.7-0.9,5.5-2,8.5-3.5l3.1,3.1l0.8,0.7l1.1,0.8
		c1.5,1,3.2,1.6,4.9,1.6c1.4,0,2.8-0.4,4.1-1.1l2-1.5c1.9-1.5,3.7-3.3,5.4-5l0.8-0.8c0.4-0.3,0.8-0.7,1.2-1.1l0.5-0.5
		c1.2-1.2,2.1-2.2,3.1-3.5c3-4.1,2.6-8.1-0.9-12l-3.4-3.4l0.2-0.5c0.3-0.5,0.5-1.1,0.7-1.6c0.8-2,1.6-4.1,2.4-6.3h3.5
		c0.8,0,1.8,0,2.7-0.1c3.5-0.3,6.1-2.3,7.5-6.2c0.2-1.1,0.3-2.1,0.5-3.6c0.1-2.5,0.1-5.1,0.1-7.6v-2.4
		C140.6,71.1,140.3,69.1,139.8,67.3z M45.5,118.5L44,118c-0.8,0.8-1.6,1.6-2.4,2.4c-0.6-0.5-1.2-1.1-1.9-1.7l-0.9-0.7
		c-1.8-1.7-3.9-3.8-5.9-6.3l3.9-3.9c2.6-2.6,3.1-5.9,1.5-9.4c-1.1-2.3-2.3-4.8-3.4-8c-0.2-0.5-0.4-1.1-0.6-1.8
		c-1.2-3.4-3.8-5.2-7.3-5.2c-1.1,0-5.8-0.1-5.8-0.1c-0.1-0.5-0.1-1.1-0.1-1.7v-8.4c0-0.6,0.1-1.2,0.2-1.8H27c3.6,0,6.4-2,7.4-5.4
		c1-3.2,2.3-6.4,3.8-9.6c1.8-3.2,1.2-6.5-1.5-9.2l-3.9-3.9c0.3-0.5,0.8-1,1.5-1.7c0.5-0.4,0.9-0.9,1.4-1.3l3.9-3.9l1.6-1.5l3.8,3.8
		c1.7,1.6,3.5,2.4,5.5,2.4c1.2,0,2.5-0.3,3.7-0.9c2.3-1.1,4.8-2.3,8-3.4c0.5-0.2,1.1-0.4,1.7-0.6c3.5-1.2,5.4-3.9,5.4-7.5v-5.8
		c0.5-0.1,1-0.2,1.9-0.3c1-0.1,2.1-0.1,3.6-0.1c0.1,0,1.8,0,1.9,0c1.5,0,2.9,0,4.5,0.2v5.8c0,3.6,2,6.4,5.4,7.4
		c3.1,1,6.2,2.3,9.9,4.1c1.1,0.5,2.3,0.8,3.5,0.8c2.1,0,4-0.9,5.5-2.4c1.2-1.2,2.6-2.6,4-3.9l1.8,1.6l3.6,3.6
		c1.2,1.2,2.3,2.4,3.4,3.7l-3.8,3.8c-2.7,2.7-3.2,6.3-1.4,9.4c1.5,3,2.6,5.3,3.3,7.4l1.4-0.5c0,0,0,0,0,0l-1,1.6l0.3,1
		c1.2,3.6,3.9,5.6,7.7,5.6h5.4c0.1,0.6,0.1,1.3,0.1,2.1v2.5c0,2.3,0,4.7-0.1,7c0,0.2,0,0.3,0,0.5c-0.2,0-5.4,0-5.4,0
		c-3.7,0-6.4,2-7.6,5.6c-0.8,2.4-1.7,4.8-2.6,7.1c-0.1,0.4-0.3,0.8-0.8,1.7l-0.5,0.8c-1.7,3.4-1.2,6.6,1.5,9.3l3.8,3.8
		c-0.5,0.6-1.1,1.2-2,2.2l-1.3,1.3c-1.8,1.8-3.5,3.5-5.3,5l-3.8-3.8c-1.6-1.6-3.5-2.5-5.5-2.5c-1.3,0-2.7,0.4-3.9,1.1
		c-2.7,1.4-5.6,2.6-7.8,3.4c-0.6,0-1.3,0.3-1.2,0.3L87,119c-3.2,1.1-5.2,3.9-5.2,7.3v5.9c-0.6,0.1-1.2,0.1-1.9,0.1h-2.6
		c-2.3,0-4.7,0-6.9-0.1c-0.2,0-0.4-0.1-0.6-0.1v-5.6c0-3.9-2.1-6.7-5.8-7.7c-2.2-0.6-4.2-1.4-6-2.3c-1.1-0.4-2-0.8-3.3-1.5
		c-1.3-0.6-2.5-0.9-3.7-0.9c-2,0-3.9,0.9-5.6,2.5l-0.9,0.9L45.5,118.5C45.5,118.5,45.5,118.5,45.5,118.5z"/>
	<g>
		<path d="M83,96.7c-0.2-0.2-0.5-0.3-0.8-0.5l-0.8,1.5l0.3-1.9c-1.8-1-3.6-2.1-5.4-3.2l-2.1-1.2c-0.7-0.4-1.4-0.6-2.2-0.6
			c-2.2,0-3.9,1.7-4,4c-2.6-1.2-4.7-2.8-6.4-5.1c-3.2-3.9-4.5-8.4-3.9-13.4c0.5-4.1,2.2-7.7,5.1-10.7c0.8-0.8,1.3-1.9,1.2-3.1
			c0-1.1-0.5-2.1-1.2-2.8c-0.8-0.8-1.8-1.2-2.9-1.2c-1.1,0-2.2,0.5-3,1.3c-2,2-3.6,4.3-4.9,7.1c-2.5,5.3-3.2,10.7-2.2,16.1
			c1.2,6.4,4.3,11.8,9.2,15.9c2.7,2.3,5.7,3.9,9.1,4.9v1.6c0,2.3,1.8,4.1,4,4.1c0.7,0,1.4-0.2,2.4-0.7c1-0.6,1.9-1.1,3.1-1.7
			c0,0,4.5-2.6,5.5-3.2c1.3-0.9,2-2.3,1.9-3.8C84.9,98.6,84.1,97.4,83,96.7z"/>
		<path d="M101.8,74c-0.9-6.2-4-11.6-9.2-15.9c-2.8-2.3-5.9-4-9.2-5v-1.8c-0.1-2.2-1.9-3.9-4.1-3.9c-0.7,0-1.3,0.2-1.9,0.5
			c-3,1.7-6,3.4-8.9,5.2c-1.3,0.7-2,2.1-2,3.5c0,1.5,0.8,2.8,2,3.5c0.8,0.5,1.5,1,2.2,1.3l6.5,3.8c0.7,0.4,1.4,0.6,2.2,0.6
			c2.2,0,3.9-1.7,4-3.9c2.3,1.1,4.3,2.5,5.9,4.4c4.1,4.8,5.5,10.2,4,16.4c-0.7,3.1-2.3,6-4.6,8.4c-0.9,0.9-1.3,2-1.3,3.3
			c0.2,1.8,1.2,3.1,2.8,3.6c0.5,0.2,1,0.3,1.4,0.3c0,0,0,0,0,0c1.2,0,2.2-0.5,3-1.4c0.7-0.7,1.4-1.5,2-2.3
			C101.3,88.3,103.1,81.4,101.8,74z"/>
	</g>
</g>
</svg>
