<?xml version="1.0" encoding="utf-8"?>
<!-- Generator: Adobe Illustrator 23.0.5, SVG Export Plug-In . SVG Version: 6.00 Build 0)  -->
<svg version="1.1" id="Layer_1" xmlns="http://www.w3.org/2000/svg" xmlns:xlink="http://www.w3.org/1999/xlink" x="0px" y="0px"
	 viewBox="0 0 48 48" style="enable-background:new 0 0 48 48;" xml:space="preserve">
<g id="groups_list" transform="translate(3 -37)">
	<g id="Group_65" transform="translate(-3 37)">
		<path id="Path_71" d="M16.6,24c-4.1,0-7.4-3.3-7.4-7.4s3.3-7.4,7.4-7.4s7.4,3.3,7.4,7.4C24,20.7,20.7,24,16.6,24z M16.6,12.8
			c-2.1,0-3.7,1.7-3.7,3.7s1.7,3.7,3.7,3.7s3.7-1.7,3.7-3.7l0,0C20.3,14.5,18.6,12.8,16.6,12.8z M16.6,24c-4.1,0-7.4-3.3-7.4-7.4
			s3.3-7.4,7.4-7.4s7.4,3.3,7.4,7.4C24,20.7,20.7,24,16.6,24z M16.6,12.8c-2.1,0-3.7,1.7-3.7,3.7s1.7,3.7,3.7,3.7s3.7-1.7,3.7-3.7
			l0,0C20.3,14.5,18.6,12.8,16.6,12.8z M44.5,25.9H33.3c-1,0-1.9-0.8-1.9-1.9c0-1,0.8-1.9,1.9-1.9h11.2c1,0,1.9,0.8,1.9,1.9
			C46.3,25,45.5,25.9,44.5,25.9z M44.5,18.4h-13c-1,0-1.9-0.8-1.9-1.9s0.8-1.9,1.9-1.9l0,0h13c1,0,1.9,0.8,1.9,1.9
			S45.5,18.4,44.5,18.4z M44.5,33.3H37c-1,0-1.9-0.8-1.9-1.9c0-1,0.8-1.9,1.9-1.9c0,0,0,0,0,0h7.4c1,0,1.9,0.8,1.9,1.9
			C46.3,32.5,45.5,33.3,44.5,33.3z M27.7,38.9H5.4c-1.9,0.2-3.6-1.3-3.7-3.2c0-0.2,0-0.4,0-0.6c0.1-8.2,6.8-14.8,15-14.8
			c8.1,0.1,14.7,6.6,14.8,14.8c0.2,1.9-1.3,3.6-3.2,3.7C28.1,38.9,27.9,38.9,27.7,38.9L27.7,38.9z M5.4,35.5L5.4,35.5z M5.4,35.2
			h22.3C27.7,29,22.6,24,16.5,24.1C10.4,24.2,5.4,29.1,5.4,35.2z"/>
	</g>
</g>
</svg>
