<?xml version="1.0" encoding="utf-8"?>
<!-- Generator: Adobe Illustrator 23.0.5, SVG Export Plug-In . SVG Version: 6.00 Build 0)  -->
<svg version="1.1" id="Layer_1" xmlns="http://www.w3.org/2000/svg" xmlns:xlink="http://www.w3.org/1999/xlink" x="0px" y="0px"
	 viewBox="0 0 48 48" style="enable-background:new 0 0 48 48;" xml:space="preserve">
<g id="group_ic" transform="translate(-106.303 -131.614)">
	<g id="Group_64" transform="translate(106.303 131.614)">
		<g id="Group_56" transform="translate(16.084 0)">
			<path id="Path_65" d="M7.9,23.6c-4.2,0-7.7-3.5-7.7-7.7s3.5-7.7,7.7-7.7s7.7,3.5,7.7,7.7l0,0C15.6,20.2,12.1,23.6,7.9,23.6z
				 M7.9,11.2c-2.6,0-4.8,2.1-4.8,4.8s2.1,4.8,4.8,4.8s4.8-2.1,4.8-4.8S10.5,11.2,7.9,11.2z"/>
		</g>
		<g id="Group_62" transform="translate(0 5.062)">
			<g id="Group_57" transform="translate(33.644)">
				<path id="Path_66" d="M4.7,19.1c-3.1,0-5.6-2.5-5.6-5.6s2.5-5.6,5.6-5.6s5.6,2.5,5.6,5.6C10.3,16.7,7.8,19.1,4.7,19.1L4.7,19.1z
					 M4.7,10.9c-1.5,0-2.6,1.2-2.6,2.6s1.1,2.7,2.6,2.7s2.6-1.2,2.6-2.6l0,0C7.3,12.1,6.2,10.9,4.7,10.9L4.7,10.9z"/>
			</g>
			<g id="Group_58" transform="translate(2.953)">
				<path id="Path_67" d="M6.7,19.1c-3.1,0-5.6-2.5-5.6-5.6s2.5-5.6,5.6-5.6s5.6,2.5,5.6,5.6C12.3,16.7,9.8,19.1,6.7,19.1L6.7,19.1z
					 M6.7,10.9c-1.5,0-2.6,1.2-2.6,2.6s1.1,2.7,2.6,2.7s2.6-1.2,2.6-2.6C9.3,12.1,8.2,10.9,6.7,10.9L6.7,10.9z"/>
			</g>
			<g id="Group_61" transform="translate(0 8.912)">
				<g id="Group_59" transform="translate(31.323)">
					<path id="Path_68" d="M7,21.1c-1.5,0-2.9-0.1-4.3-0.3l-1.2-0.2v-1.4c0-2-0.7-3.9-1.8-5.6l-0.5-0.7l0.4-0.7
						C0.9,9.3,3.8,7.4,7,7.3c4.5,0,8.4,4,8.4,8.9C15.4,21.1,10.8,21.1,7,21.1z M4.4,18c0.8,0.1,1.8,0.1,2.6,0.1c5,0,5.4-0.5,5.4-2
						c-0.1-3.2-2.6-5.9-5.5-5.9c-1.8,0.1-3.4,0.9-4.3,2.4C3.6,14.4,4.2,16.2,4.4,18z"/>
				</g>
				<g id="Group_60">
					<path id="Path_69" d="M9.6,21.1c-3.7,0-8.4,0-8.4-5c0-4.9,3.8-8.9,8.4-8.9c3.2,0.1,6.1,2,7.4,4.9l0.4,0.7l-0.5,0.7
						c-1.1,1.7-1.7,3.5-1.7,5.6v1.5L14,20.9C12.5,21,11.1,21.1,9.6,21.1z M9.6,10.3c-2.9,0-5.4,2.8-5.4,5.9c0,1.5,0.5,2,5.4,2
						c0.9,0,1.8,0,2.6-0.1c0.2-1.9,0.7-3.6,1.7-5.3C13.1,11.2,11.4,10.3,9.6,10.3L9.6,10.3z"/>
				</g>
			</g>
		</g>
		<g id="Group_63" transform="translate(11.707 13.289)">
			<path id="Path_70" d="M12.3,26.5c-5.5,0-11.8,0-11.8-6.6C0.5,13,5.9,7.3,12.3,7.3S24.1,13,24.1,19.9
				C24.1,26.5,17.8,26.5,12.3,26.5z M12.3,10.3c-4.7,0-8.8,4.5-8.8,9.5c0,3,1.6,3.6,8.8,3.6s8.8-0.7,8.8-3.6
				C21.1,14.8,17,10.3,12.3,10.3L12.3,10.3z"/>
		</g>
	</g>
</g>
</svg>
