<?xml version="1.0" encoding="utf-8"?>
<!-- Generator: Adobe Illustrator 24.1.2, SVG Export Plug-In . SVG Version: 6.00 Build 0)  -->
<svg version="1.1" id="graph" xmlns="http://www.w3.org/2000/svg" xmlns:xlink="http://www.w3.org/1999/xlink" x="0px" y="0px"
	 viewBox="0 0 41.8 41.7" style="enable-background:new 0 0 41.8 41.7;" xml:space="preserve">
<g>
	<g>
		<g>
			<path d="M29.7,32.2c1.1-1.1,2.1-2.1,3.2-3.2c1.7-1.7,3.3-3.3,5-5c0.4-0.4,0.8-0.8,1.1-1.1c0.6-0.6,0.6-1.8,0-2.4
				c-1.1-1.1-2.1-2.1-3.2-3.2c-1.7-1.7-3.3-3.3-5-5c-0.4-0.4-0.8-0.8-1.1-1.1c-0.6-0.6-1.8-0.7-2.4,0c-0.6,0.7-0.7,1.7,0,2.4
				c1.1,1.1,2.1,2.1,3.2,3.2c1.7,1.7,3.3,3.3,5,5c0.4,0.4,0.8,0.8,1.1,1.1c0-0.8,0-1.6,0-2.4c-1.1,1.1-2.1,2.1-3.2,3.2
				c-1.7,1.7-3.3,3.3-5,5c-0.4,0.4-0.8,0.8-1.1,1.1c-0.6,0.6-0.7,1.8,0,2.4C28,32.8,29,32.9,29.7,32.2L29.7,32.2z"/>
		</g>
	</g>
	<g>
		<g>
			<path d="M37.8,20c-0.8,0-1.7,0-2.5,0c-2,0-4,0-6.1,0c-2.4,0-4.9,0-7.3,0c-2.1,0-4.2,0-6.3,0c-1,0-2,0-3.1,0c0,0,0,0,0,0
				c-0.9,0-1.7,0.8-1.7,1.7c0,0.9,0.7,1.7,1.7,1.7c0.8,0,1.7,0,2.5,0c2,0,4,0,6.1,0c2.4,0,4.9,0,7.3,0c2.1,0,4.2,0,6.3,0
				c1,0,2,0,3.1,0c0,0,0,0,0,0c0.9,0,1.7-0.8,1.7-1.7C39.5,20.8,38.8,20,37.8,20L37.8,20z"/>
		</g>
	</g>
</g>
<g>
	<g>
		<path d="M23.1,33.8C23,34.3,23,34.9,23,35.4c0,0.8,0,1.6,0,2.5c0.1-0.1-0.2-0.1-0.1,0c0.1,0.1,0.2-0.2,0.1-0.2
			c-0.1-0.1-0.3,0.1-0.3,0.2c-8.8,0-7.6,0-16.5,0c-0.1,0-0.2,0-0.3,0c0.1,0,0.3,0,0.5,0.1c-0.2,0-0.3-0.1-0.5-0.1
			C6,37.9,6.2,37.9,6.3,38c-0.2-0.1-0.3-0.2-0.5-0.3C6,37.8,6.1,37.9,6.2,38c-0.1-0.1-0.3-0.2-0.4-0.4c0.1,0.1,0.2,0.2,0.3,0.3
			c-0.1-0.2-0.2-0.3-0.3-0.5c0.1,0.1,0.1,0.3,0.2,0.4c-0.1-0.2-0.1-0.3-0.1-0.5c0,0.1,0,0.3,0.1,0.5c0-0.4,0-0.8,0-1.1
			c0-0.8,0-1.6,0-2.4c0-1.2,0-2.4,0-3.6c0-1.5,0-2.9,0-4.4c0-1.6,0-3.2,0-4.8c0-1.6,0-3.2,0-4.9c0-1.5,0-3,0-4.5c0-1.3,0-2.5,0-3.8
			c0-0.9,0-1.8,0-2.7c0-0.4,0-0.8,0-1.2c0-0.1,0-0.2,0-0.3c0,0.1,0,0.3-0.1,0.5C5.8,4.3,5.9,4.1,6,4C5.9,4.1,5.8,4.3,5.8,4.4
			c0.1-0.2,0.2-0.3,0.3-0.5C6,4,5.9,4.1,5.8,4.3C5.9,4.1,6,4,6.2,3.9C6.1,4,6,4,5.8,4.1C6,4,6.1,3.9,6.3,3.9C6.2,3.9,6,4,5.9,4
			C6.1,4,6.2,3.9,6.4,3.9c-0.1,0-0.3,0-0.5,0.1c0.3,0,0.6,0,0.9,0c0.6,0,1.3,0,1.9,0c7.9,0,5.9,0,13.8,0c0.1,0,0.2,0,0.3,0
			c-0.1,0-0.3,0-0.5-0.1C22.6,3.9,22.8,4,23,4c-0.1-0.1-0.3-0.1-0.4-0.2C22.7,3.9,22.9,4,23,4.1C22.9,4,22.8,4,22.7,3.9
			C22.9,4,23,4.1,23.1,4.3C23,4.1,22.9,4,22.8,3.9c0.1,0.2,0.2,0.3,0.3,0.5C23,4.3,23,4.1,22.9,4C23,4.1,23,4.3,23.1,4.5
			C23,4.3,23,4.2,23,4c0.1,0.5,0,0.9,0,1.4c0,0.7,0,1.4,0,2.1c0,0.2,0,0.3,0,0.5c0,0.9,0.8,1.7,1.7,1.7c0.9,0,1.7-0.7,1.7-1.7
			c0-0.9,0-1.8,0-2.7c0-0.3,0-0.6,0-0.9c0-2.9-2.5-3.8-5-3.8c-8.2,0-6.4,0-14.6,0c-0.2,0-0.5,0-0.7,0c-1.3,0.1-2.6,0.8-3.3,2
			C2.6,3.1,2.4,3.7,2.4,4.4c0,0.8,0,1.6,0,2.5c0,1.8,0,3.6,0,5.4c0,2.3,0,4.6,0,6.9c0,2.4,0,4.9,0,7.3c0,2.1,0,4.2,0,6.3
			c0,1.3,0,2.7,0,4c0,0.3,0,0.5,0,0.8c0,0.7,0.2,1.4,0.6,2c0.7,1.1,1.9,1.8,3.2,1.8c8.3,0.1,6.5,0,14.8,0c1,0,2.1,0,3.1-0.4
			c2.5-0.9,2.3-3.7,2.3-5.9c0-1.2-0.2-2.7-1.4-3c-0.7-0.1-1.5,0.4-1.8,1.1C23.2,33.4,23.1,33.6,23.1,33.8z"/>
	</g>
</g>
</svg>
