<?xml version="1.0" encoding="utf-8"?>
<!-- Generator: Adobe Illustrator 24.1.2, SVG Export Plug-In . SVG Version: 6.00 Build 0)  -->
<svg version="1.1" id="graph" xmlns="http://www.w3.org/2000/svg" xmlns:xlink="http://www.w3.org/1999/xlink" x="0px" y="0px"
	 viewBox="0 0 41.8 41.7" style="enable-background:new 0 0 41.8 41.7;" xml:space="preserve">
<g>
	<g>
		<g>
			<path d="M29.7,32.2c1.1-1.1,2.1-2.1,3.2-3.2c1.7-1.7,3.3-3.3,5-5c0.4-0.4,0.8-0.8,1.1-1.1c0.6-0.6,0.6-1.8,0-2.4
				c-1.1-1.1-2.1-2.1-3.2-3.2c-1.7-1.7-3.3-3.3-5-5c-0.4-0.4-0.8-0.8-1.1-1.1c-0.6-0.6-1.8-0.7-2.4,0s-0.7,1.7,0,2.4
				c1.1,1.1,2.1,2.1,3.2,3.2c1.7,1.7,3.3,3.3,5,5c0.4,0.4,0.8,0.8,1.1,1.1c0-0.8,0-1.6,0-2.4c-1.1,1.1-2.1,2.1-3.2,3.2
				c-1.7,1.7-3.3,3.3-5,5c-0.4,0.4-0.8,0.8-1.1,1.1c-0.6,0.6-0.7,1.8,0,2.4C28,32.8,29,32.9,29.7,32.2L29.7,32.2z"/>
		</g>
	</g>
	<g>
		<g>
			<path d="M37.8,20c-0.8,0-1.7,0-2.5,0c-2,0-4,0-6.1,0c-2.4,0-4.9,0-7.3,0c-2.1,0-4.2,0-6.3,0c-1,0-2,0-3.1,0l0,0
				c-0.9,0-1.7,0.8-1.7,1.7c0,0.9,0.7,1.7,1.7,1.7c0.8,0,1.7,0,2.5,0c2,0,4,0,6.1,0c2.4,0,4.9,0,7.3,0c2.1,0,4.2,0,6.3,0
				c1,0,2,0,3.1,0l0,0c0.9,0,1.7-0.8,1.7-1.7C39.5,20.8,38.8,20,37.8,20L37.8,20z"/>
		</g>
	</g>
</g>
<path d="M17,41.5H4.5C3.7,41.5,3,40.8,3,40V2c0-0.8,0.7-1.5,1.5-1.5H17c0.8,0,1.5,0.7,1.5,1.5S17.8,3.5,17,3.5H6v35h11
	c0.8,0,1.5,0.7,1.5,1.5S17.8,41.5,17,41.5z"/>
</svg>
