<?xml version="1.0" encoding="utf-8"?>
<!-- Svg Vector Icons : http://www.onlinewebfonts.com/icon -->
<!DOCTYPE svg PUBLIC "-//W3C//DTD SVG 1.1//EN" "http://www.w3.org/Graphics/SVG/1.1/DTD/svg11.dtd">
<svg version="1.1" xmlns="http://www.w3.org/2000/svg" xmlns:xlink="http://www.w3.org/1999/xlink" x="0px" y="0px" viewBox="0 0 1000 1000" enable-background="new 0 0 1000 1000" xml:space="preserve">
<metadata> Svg Vector Icons : http://www.onlinewebfonts.com/icon </metadata>
<g><g><g><path d="M745,440.6V181L573.9,10H10v980h735v-1.8c137.8-15.3,244.9-132,245-273.8C989.9,572.5,882.8,455.8,745,440.6z M561.2,83.9l109.9,109.9H561.2V83.9z M71.3,928.8V71.2H500V255h183.8v185.6c-137.8,15.3-245,131.9-245,273.8c0,86.6,40.1,163.9,102.6,214.4H71.3z M714.4,925.2c-116.4-0.3-210.6-94.4-210.9-210.8C503.8,598,598,503.8,714.4,503.5c116.3,0.3,210.5,94.4,210.8,210.9C924.9,830.7,830.7,924.9,714.4,925.2z"/><rect x="683.8" y="683.8" width="61.3" height="183.8"/><rect x="683.8" y="561.3" width="61.3" height="61.3"/></g></g><g></g><g></g><g></g><g></g><g></g><g></g><g></g><g></g><g></g><g></g><g></g><g></g><g></g><g></g><g></g></g>
</svg>