<?xml version="1.0" encoding="utf-8"?>
<!-- Generator: Adobe Illustrator 23.0.5, SVG Export Plug-In . SVG Version: 6.00 Build 0)  -->
<svg version="1.1" id="Layer_1" xmlns="http://www.w3.org/2000/svg" xmlns:xlink="http://www.w3.org/1999/xlink" x="0px" y="0px"
	 viewBox="0 0 48 48" style="enable-background:new 0 0 48 48;" xml:space="preserve">
<path id="workflow_ic" d="M42.3,33.9V22.7H25.4v-8.4H31V0H17v14.2h5.6v8.4H5.7v11.2H0V48h14.2V33.9H8.5v-8.4h14.1v8.4H17V48H31V33.9
	h-5.6v-8.4h14.1v8.4h-5.6V48H48V33.9H42.3z M19.8,2.8h8.4v8.6h-8.4L19.8,2.8z M11.3,45.2H2.8v-8.4h8.5V45.2z M28.2,45.2h-8.4v-8.4
	h8.4L28.2,45.2z M45.2,45.2h-8.5v-8.4h8.5V45.2z"/>
</svg>
